{"hash":"ab82bc7b7df72d09dee9dcacb347541895936892","data":{"docs":{"totalCount":105,"pageInfo":{"totalPages":5,"currentPage":2},"edges":[{"node":{"id":"f6e9f70eb825f9455c70488e61a111b9","title":"Get distinct values in parameter dropdown | Bold Reports","date":"May 24, 2022","path":"/report-parameters/how-to-get-distinct-values-in-ssrs-parameter-drop-down"}},{"node":{"id":"e876106732e9ff7ebba3c6db6f0c0dd0","title":"Get the dataset name in Web API Service Report Viewer","date":"May 25, 2022","path":"/datasource-and-dataset/how-to-get-the-dataset-name-in-web-api-service"}},{"node":{"id":"40a892cebdc7202c344ffe4f54dd47ed","title":"How to add Check box Report column in Bold Reports?","date":"May 24, 2022","path":"/working-with-reports/how-to-add-check-box-in-table-report"}},{"node":{"id":"441b103db218f2d2a2de1b1004d857d6","title":"How to add Report Viewer in the JSP application","date":"May 24, 2022","path":"/supported-frameworks/add-report-viewer-in-jsp"}},{"node":{"id":"131cf32992403566800448f9a3620edc","title":"How to add WebAPI Data Processing Extension | Designer","date":"May 25, 2022","path":"/report-data-extensions/how-to-add-webapi-data-processing-for-designer"}},{"node":{"id":"74bce2bb9150891cdf8c998a5f4e8f4c","title":"How to add a new item to the Report Viewer toolbar?","date":"May 11, 2022","path":"/customization/how-to-add-a-new-item-to-the-report-viewer-toolbar"}},{"node":{"id":"29069d155df09a6e406a7b0b9fe4350d","title":"How to add checkbox in table column using image?","date":"May 24, 2022","path":"/working-with-reports/how-to-add-check-box-in-table-report-using-image-item"}},{"node":{"id":"7087e394e13f5e21c0b9b836fa79571e","title":"How to add interactive sorting for tablix and matrix?","date":"May 24, 2022","path":"/working-with-reports/how-to-add-interactive-sorting-for-table-and-matrix"}},{"node":{"id":"7538ef6b54b29c3d8229057c98201e49","title":"How to allow Reporting Tools via controlled folder access?","date":"May 24, 2022","path":"/installation-and-troubleshooting/access-protected-folders"}},{"node":{"id":"99771ee5c0c49d186d1a73c9558c0f34","title":"How to bind business object data collection in a report?","date":"May 11, 2022","path":"/datasource-and-dataset/how-to-bind-business-object-data-collection-in-a-report"}},{"node":{"id":"f0833e977aa65fff7953cb1a864cf3d4","title":"How to convert Crystal Reports for Bold Reports","date":"May 25, 2022","path":"/migration/how-to-convert-crystal-reports-to-rdl-for-bold-reports"}},{"node":{"id":"a6fed1376d3811e6f1942b0c4c9f6a4f","title":"How to create a cover page report in report designer?","date":"May 25, 2022","path":"/working-with-reports/how-to-create-the-cover-page-report-in-bold-reports"}},{"node":{"id":"a17f813a2eab3bf109539ae765d166ea","title":"How to create a master-detail report using the list?","date":"May 25, 2022","path":"/working-with-reports/how-to-create-master-detail-report-using-list"}},{"node":{"id":"1721724a0ce549a1001405861f8b304f","title":"How to create a master-detail report using the table?","date":"May 25, 2022","path":"/working-with-reports/how-to-create-master-detail-report-using-table"}},{"node":{"id":"b200290cfce22ea66f58dabd3f0ef42b","title":"How to create a report with excel datasource?","date":"May 24, 2022","path":"/working-with-reports/create-report-with-excel-datasource"}},{"node":{"id":"0fedcfcc74b42b1670a0f1237caf4c1e","title":"How to create master detail report using subreport?","date":"May 25, 2022","path":"/working-with-reports/how-to-create-master-detail-report-using-sub-report"}},{"node":{"id":"b228b451ba32a961245b3b237dc0d0d8","title":"How to customize the parameter block items.?.","date":"May 11, 2022","path":"/customization/how-to-customize-the-parameter-block-items"}},{"node":{"id":"b35b8858dfd751c76ad58b4fb116f950","title":"How to customize the save and open button in Designer?","date":"May 25, 2022","path":"/customization/how-to-customize-the-save-and-open-button-in-report-designer"}},{"node":{"id":"da1d488ea8f01c07778a8233624802fc","title":"How to design the report with encrypted data?","date":"May 24, 2022","path":"/working-with-reports/how-to-design-the-report-with-encrypted-data-on-bold-reports"}},{"node":{"id":"46fabfb7775560d4cf18726281162d51","title":"How to display no data message for a data region?","date":"May 25, 2022","path":"/customization/how-to-display-no-data-message-for-a-data-region"}},{"node":{"id":"6e721bd2388242edd0e424749c80ee2d","title":"How to dispose the ReportViewer object in Bold Reports","date":"May 24, 2022","path":"/general/how-to-dispose-the-web-reportviewer-object"}},{"node":{"id":"5394c4a5c3e4fc16fa8f2b7446dfa896","title":"How to embed Server reports in web application?","date":"May 11, 2022","path":"/embed-reports/how-to-embed-boldreports-server-reports-in-a-web-application"}},{"node":{"id":"f9f01f9dfe7bf66c8226fa3fccd4a478","title":"How to find the specific element is available in report?","date":"May 24, 2022","path":"/working-with-reports/how-to-find-specific-field-element-available-in-report"}},{"node":{"id":"ab44a1e77306c0a212a7181412737a79","title":"How to have the save alone with report designer?","date":"May 25, 2022","path":"/customization/how-to-have-the-save-alone-with-report-designer"}},{"node":{"id":"41a538d66aff9870004418c8d2d728f5","title":"How to hide columns in Table ReportItem by parameters?","date":"May 24, 2022","path":"/working-with-reports/how-to-hide-column-based-on-report-parameter-value"}}]}},"context":{}}