{"hash":"ab82bc7b7df72d09dee9dcacb347541895936892","data":{"docs":{"totalCount":105,"pageInfo":{"totalPages":5,"currentPage":4},"edges":[{"node":{"id":"272e86f26702e7a3bc3f9c9400268ea9","title":"Migrate Syncfusion Report to Bold Reports platform","date":"May 25, 2022","path":"/migration/why-should-you-migrate-to-bold-reports-from-syncfusion-report-platform"}},{"node":{"id":"39d4d43e0894453f3db557228bd92b4d","title":"Nested object JSON data processing in Report designer","date":"May 25, 2022","path":"/datasource-and-dataset/how-nested-object-json-datasource-processed-in-designer"}},{"node":{"id":"d5c7a851210a4f81fafc6d64a7715f3d","title":"Pass User as parameter to filter the data Javascript","date":"May 25, 2022","path":"/datasource-and-dataset/database-users-as-parameter-and-filter-report-data-based-on-user-parameter"}},{"node":{"id":"893dae0780d21ef0e86645665b923eb1","title":"Passing login user as parameter to Stored Procedure","date":"May 24, 2022","path":"/report-parameters/how-to-pass-the-login-user-as-parameter-to-stored-procedure"}},{"node":{"id":"262b5a1d374b6e7b432b1d3a26a3648c","title":"PostgreSQL Data Extension | Bold Reports Designer","date":"May 25, 2022","path":"/report-data-extensions/how-to-configure-postgresql-data-extension-for-report-designer"}},{"node":{"id":"579ebe2468d63ad0e20e488c700d8f10","title":"PostgreSQL Data Processing Extension | Bold Reports","date":"May 25, 2022","path":"/report-data-extensions/how-to-configure-postgresql-data-extension-for-report-viewer"}},{"node":{"id":"6ab6193abd6ab023ed68068ffa969aa4","title":"Programmatically query a list of parameters in a report","date":"May 24, 2022","path":"/report-parameters/how-to-programmatically-query-a-list-of-parameters-in-a-report"}},{"node":{"id":"1d388bca83af99323a3f23ad389d6287","title":"Replace the custom patch in Standalone Report Designer","date":"May 24, 2022","path":"/installation-and-troubleshooting/replace-the-custom-patch-in-designer"}},{"node":{"id":"6bed4f5d18072d6cd4ba559818080b23","title":"Resolve API Routing Issue in ASP.Net MVC in Bold Reports","date":"May 24, 2022","path":"/general/how-to-resolve-api-routing-issue-in-asp-net-mvc"}},{"node":{"id":"ae67a48375c7d142c0b74d3acc9b8200","title":"Resolve the EJ undefined issue with Bold Reports","date":"May 25, 2022","path":"/working-with-ej1-and-ej2-controls/resolve-syncfusion-undefined-issue-when-using-bold-reporting-components"}},{"node":{"id":"6ebe1395869d2bfa06558140a91e9fb0","title":"Resolving Multiple actions routing issue | Bold Reports","date":"May 25, 2022","path":"/rpeort-service/how-to-resolve-multiple-actions-were-found-that-match-the-request-in-web-api"}},{"node":{"id":"a51398967f29295b8df8bd1448500c16","title":"Resolving image render and export issue on ASP.NET Core","date":"May 25, 2022","path":"/export-and-print-preview/resolve-the-image-render-and-export-issue-with-asp.net-core-authentication"}},{"node":{"id":"af75343031690d902d946ba5e44fabf1","title":"Resolving the image render and export issue on ASP.NET MVC","date":"May 25, 2022","path":"/export-and-print-preview/resolve-the-image-render-and-export-issue-with-asp.net-mvc-authentication"}},{"node":{"id":"8c64ebf007974f4ceb09100569b7906d","title":"SDK Viewer Licensing | Embedded Reporting Tools","date":"May 25, 2022","path":"/licensing/is-bold-reports-embedded-reporting-tools-requires-additional-licensing"}},{"node":{"id":"27ae8ca278a11b7eb05d3b9cae1e59ad","title":"Select the available values in parameter list as default","date":"May 24, 2022","path":"/report-parameters/set-all-values-in-multi-value-parameters-as-default"}},{"node":{"id":"c7f2768d7c0c46d6497a3e6f70602826","title":"Show parameters select all text | Bold Reports","date":"May 24, 2022","path":"/report-parameters/show-select-all-text-instead-of-showing-all-values-from-parameter"}},{"node":{"id":"4bf9c7b99c20bac98af3574f2d24f5f2","title":"Supported HTML tags in Bold Reports Report Viewer","date":"May 24, 2022","path":"/general/what-are-all-the-supported-html-tags-in-report-viewer"}},{"node":{"id":"3781150719b51b6d9f2179808cc15b9b","title":"Theme studio for Bold Reports to generate custom theme","date":"May 24, 2022","path":"/general/is-theme-studio-available-for-bold-reports-to-generate-the-custom-theme"}},{"node":{"id":"828173db20d3bcb8b8f1093436a74e06","title":"Unsupported media type error on the loading image","date":"May 24, 2022","path":"/supported-frameworks/resolve-unsupported-media-type-error-on-loading-image-in-asp.net-core"}},{"node":{"id":"8b0b87c595ae4d41cde48400de65d5ef","title":"Upgrade or downgrade reports | Bold Reports Designer","date":"May 25, 2022","path":"/migration/how-to-upgrade-or-downgrade-rdl-schema-version"}},{"node":{"id":"6d1557a6509757e3952b1f568f582d18","title":"Use the Java Spring Framework for Bold Reports","date":"May 24, 2022","path":"/supported-frameworks/can-bold-reports-be-used-with-java-spring-framework"}},{"node":{"id":"d9b59bfc01ae95d7eac2c2bd7d291377","title":"WebAPI Data Processing Extension | Bold Reports","date":"May 25, 2022","path":"/report-data-extensions/how-to-configure-webapi-data-extension-for-report-viewer"}},{"node":{"id":"4c6184384d15ed5c59906262ce617617","title":"Where can I find the installation error and debug?","date":"May 24, 2022","path":"/installation-and-troubleshooting/where-can-i-find-the-installation-error-and-debug-log-files"}},{"node":{"id":"b5e6f0f175a64d4e708e45876c86fd0a","title":"Why http authorization headers are not being set?","date":"May 25, 2022","path":"/rpeort-service/why-authorization-headers-are-not-being-set-for-all-requests"}},{"node":{"id":"274e0f1e771805261d89d15ba6932318","title":"Why should not use Produces attribute in web API?","date":"May 25, 2022","path":"/report-service/why-should-not-use-produces-attribute-in-web-api-controller"}}]}},"context":{}}