{"hash":"ab82bc7b7df72d09dee9dcacb347541895936892","data":{"docs":{"totalCount":105,"pageInfo":{"totalPages":5,"currentPage":1},"edges":[{"node":{"id":"673b7442833ce1ee5337dbbeb49479b3","title":" How to set the parameter | Bold Reports platform","date":"May 24, 2022","path":"/report-parameters/how-to-set-the-parameter-in-web-api-controller"}},{"node":{"id":"fc2338f7b33f8f8fb4bede9544f926dd","title":"Avoid the extra blank pages in print and print preview","date":"May 25, 2022","path":"/export-and-print-preview/how-to-avoid-the-extra-blank-pages-in-print-and-print-preview"}},{"node":{"id":"f6e1e5bcd61f977361e6dce74f70d314","title":"Bold Reports loading the process when loaded from SSRS","date":"May 24, 2022","path":"/working-with-ssrs/does-bold-report-viewer-use-ssrs-report-processing"}},{"node":{"id":"59f00fabe95956f1a80dfed513c33714","title":"Bold Reports support .NET Core and Docker on Linux","date":"May 24, 2022","path":"/supported-frameworks/bold-reports-embedded-reporting-tools-support-net-core-and-docker-on-linux"}},{"node":{"id":"512f7d01902ac21bb5fb96fb0e704b10","title":"CDN links for Localization and Culture for locale","date":"May 24, 2022","path":"/general/how-to-get-the-cdn-links-for-localization-and-culture-scripts"}},{"node":{"id":"21c8d5849422f98ae6926758129987c1","title":"Can Bold Reports be used with .NET Core Linux and macOS","date":"May 24, 2022","path":"/supported-frameworks/can-the-aspnet-core-report-viewer-and-report-designer-be-used-on-linux-and-macos"}},{"node":{"id":"22426ba697ff44d93389977507e9acce","title":"Can specify ReportServer URL in Web API controller?","date":"May 25, 2022","path":"/report-service/can-specify-report-server-in-web-api-controller"}},{"node":{"id":"ebea93784b18d5d7942c0d7cb2a6d96f","title":"Can we use the Report Designer component from Syncfusion?","date":"May 25, 2022","path":"/licensing/can-we-use-the-report-designer-from-syncfusion-community-license"}},{"node":{"id":"33eaddf2f814157ff95e59fb26bea10f","title":"Can you use data table in reports to add a data source","date":"May 25, 2022","path":"/datasource-and-dataset/possible-to-use-data-table-in-report"}},{"node":{"id":"1da936f9c94016922d76342aa135be3e","title":"Centralized report authering for Report Server","date":"May 24, 2022","path":"/general/is-bold-reports-have-a-centralized-report-authoring-system"}},{"node":{"id":"211eb5da76975dd05e1fec4361011fcd","title":"Change connection string for data source dynamically","date":"May 25, 2022","path":"/datasource-and-dataset/how-to-change-data-source-for-report-using-parameter"}},{"node":{"id":"1acad58515225339ef7d8ed6da727652","title":"Change the Datasource dynamically | Bold Reports","date":"May 25, 2022","path":"/datasource-and-dataset/change-the-report-datasource-dynamically"}},{"node":{"id":"e11fb35006ed8fb9a6b0f65b49513212","title":"Change the date parameter to DateTime UI for time values?","date":"May 24, 2022","path":"/report-parameter/how-to-change-date-parameter-ui-to-datetime"}},{"node":{"id":"394101dc04574c8911d3fb1fe6312186","title":"Change the parameter data type | Bold Reports platform","date":"May 24, 2022","path":"/report-parameters/how-to-change-the-parameter-data-type"}},{"node":{"id":"22420e174abcc1ecd7f496d1f70ee104","title":"Change the parameter label based on another parameter","date":"May 24, 2022","path":"/report-parameters/how-to-customize-parameter-label-based-on-another-parameter-value"}},{"node":{"id":"9e2b9ce084de496dc160a1f951707feb","title":"Change the width size of available parameter item","date":"May 24, 2022","path":"/report-parameters/how-to-change-width-of-parameter"}},{"node":{"id":"700559a968b1bb2da96f989ac528b1e0","title":"Connect Report Server Report service with application API","date":"May 25, 2022","path":"/report-service/how-to-connect-report-server-report-service-with-application-api"}},{"node":{"id":"4a5d9db2599dcfb18b0789a19d48a9d2","title":"Custom NuGet packages | Bold Reports | ASP.NET Core","date":"May 24, 2022","path":"/installation-and-troubleshooting/apply-custom-nuget-packages"}},{"node":{"id":"d49b7fae48cd35538e1ba41744f0eb69","title":"Customize parameter settings by parameter name","date":"May 24, 2022","path":"/report-parameters/customize-the-parameter-setting-by-parameter-name"}},{"node":{"id":"6c0ffe2128e821dd6453a6fee7f3f5bb","title":"Difference between Embedded Reporting and ReportViewer SDK","date":"May 24, 2022","path":"/general/what-are-the-differences-between-embedded-reporting-and-report-viewer-sdk"}},{"node":{"id":"a71aad247166b4ad1c38beb6f46c3dc7","title":"Difference between Report Service URL and Server URL","date":"May 25, 2022","path":"/report-service/what-is-the-difference-between-report-service-and-report-server"}},{"node":{"id":"6f9196d2f4f110ce7aca12ae14b59e0c","title":"Does Bold Reports have licensing procedure for deployment?","date":"May 25, 2022","path":"/licensing/does-bold-reports-have-any-licensing-procedure-for-deployment"}},{"node":{"id":"bf7eb16d7acab3ccf98a5c5d28938b59","title":"Enable SSRS permission | Embedded Reporting Tools","date":"May 24, 2022","path":"/working-with-ssrs/ssrs-enable-permission"}},{"node":{"id":"4a29cf28704205180ada6645992e4ead","title":"Error issue on rendering report with multiple parameters?","date":"May 24, 2022","path":"/report-parameters/how-to-resolve-error-issue-on-rendering-the-report-with-multiple-parameters"}},{"node":{"id":"f2bb29265f273b56fd6be164c2987022","title":"Generate PDF from the report in console application","date":"May 25, 2022","path":"/export-and-print-preview/generate-pdf-from-report-in-console-app"}}]}},"context":{}}