{"hash":"ab82bc7b7df72d09dee9dcacb347541895936892","data":{"docs":{"totalCount":105,"pageInfo":{"totalPages":5,"currentPage":5},"edges":[{"node":{"id":"97848c79abfee7de96a4ef6d935db901","title":"how to create report using business object datasource?","date":"May 24, 2022","path":"/working-with-reports/is-it-possible-to-create-reports-using-business-object-data-source"}},{"node":{"id":"936466e178d3211fab21d1c19040e987","title":"how to do automatic resizing of Textbox based on content?","date":"May 24, 2022","path":"/working-with-reports/how-to-do-automatic-resizing-of-text-box-based-on-content"}},{"node":{"id":"40baa0ac63b73285377a12e72a0b16da","title":"how to hide license error watermarks in components?","date":"May 25, 2022","path":"/licensing/how-to-hide-the-license-watermarks"}},{"node":{"id":"d6791f664b18942ac80fff276c2aa2c7","title":"how to repeat header with a group using report designer?","date":"May 24, 2022","path":"/working-with-reports/how-to-repeat-the-headers-with-group-in-a-table"}},{"node":{"id":"fdbde1f6d636e141966d1abc401e4e93","title":"how to use matrix instead of using the pivot grid?","date":"May 24, 2022","path":"/working-with-reports/how-to-use-matrix-instead-of-using-the-pivot-grid"}}]}},"context":{}}