{"hash":"ab82bc7b7df72d09dee9dcacb347541895936892","data":{"docs":{"totalCount":105,"pageInfo":{"totalPages":5,"currentPage":3},"edges":[{"node":{"id":"5aacccd5ab1c9c086916fc34045e1f0e","title":"How to hide the column or row when field value is empty?","date":"May 25, 2022","path":"/working-with-reports/how-to-hide-table-column-or-row-when-field-value-empty"}},{"node":{"id":"8bd906957215f34f7aba26ce9028a5e3","title":"How to install Embedded Reporting Tools in silent mode?","date":"May 24, 2022","path":"/installation-and-troubleshooting/silent-installation"}},{"node":{"id":"9a019fcc8ce1bde7788a10ccbd75e7ea","title":"How to install the PhantomJS manually in Bold Reports?","date":"May 24, 2022","path":"/installation-and-troubleshooting/how-to-install-phantomjs-manually"}},{"node":{"id":"e0bb0aaa42414fa76e7b122cef9d170d","title":"How to manage reports within application using Designer?","date":"May 24, 2022","path":"/working-with-reports/how-to-manage-reports-with-in-application"}},{"node":{"id":"1418ac61d80eaac083f88dfb41717a0e","title":"How to pass JSON data in the Report Viewer and Writer","date":"May 25, 2022","path":"/report-data-extensions/how-to-pass-the-json-data"}},{"node":{"id":"760f07d612be36a7cdd06e2258f4c7e9","title":"How to pass datasource/server credentials to server side","date":"May 11, 2022","path":"/embed-reports/how-to-pass-data-source-or-server-credentials-to-the-server-side"}},{"node":{"id":"140f4daabbe26dfae301f991f637cc88","title":"How to print the report using external button | Reports","date":"May 25, 2022","path":"/export-and-print-preview/how-to-print-the-report-using-external-button"}},{"node":{"id":"44a1bbc55687a529eccd24975f5f262d","title":"How to print the report without margin | Reports","date":"May 25, 2022","path":"/export-and-print-preview/print-the-report-without-margin"}},{"node":{"id":"71e09eb93f560a9a6635c4f34168f073","title":"How to render SSRS reports using Bold Report Viewer?","date":"May 11, 2022","path":"/embed-reports/how-to-render-ssrs-reports"}},{"node":{"id":"4d7644a4ea3e829d0f26a27c2e1a005a","title":"How to resolve the Bold Reports undefined issue","date":"May 24, 2022","path":"/general/how-to-resolve-bold-reporting-components-undefined-issue"}},{"node":{"id":"1042318fe20bd303a6700c1d47c7aa26","title":"How to show alert for users to save the changes?","date":"May 25, 2022","path":"/customization/how-to-show-alert-for-users-to-save-the-changes-before-closing-the-designer"}},{"node":{"id":"92199ca766d2739e20ddc975ebd7cb20","title":"How to show or hide the Report Viewer toolbar options?","date":"May 11, 2022","path":"/customization/how-to-show-or-hide-the-report-viewer-toolbar-options"}},{"node":{"id":"7dadfd98337d48a0cdb90759fc577124","title":"How to troubleshoot for Embedded Reporting Tools?","date":"May 24, 2022","path":"/installation-and-troubleshooting/troubleshooting-embedded-tools"}},{"node":{"id":"0da9defb2263142af077aa6924a99f1e","title":"How to use BoldReports ReportViewer with EJ2 controls","date":"May 25, 2022","path":"/working-with-ej1-and-ej2-controls/bold-reports-with-ej2-controls"}},{"node":{"id":"61b6daa025994b551f64b6666179fea1","title":"How to use BoldReports component with EJ1 controls","date":"May 25, 2022","path":"/working-with-ej1-and-ej2-controls/bold-reports-with-ej1-controls"}},{"node":{"id":"79ead50686e6ac1962a9db29032ed07d","title":"How to use a frame border-image for PDF documentation","date":"May 25, 2022","path":"/export-and-print-preview/how-to-use-a-frame-border-image-for-pdf-document"}},{"node":{"id":"b7f7b41738f1e8d454f75e5e940696f1","title":"How to use table instead of using the grid item?","date":"May 24, 2022","path":"/working-with-reports/how-to-use-table-instead-of-using-the-report-platform-grid"}},{"node":{"id":"0c332cb4550630a22bbe16337ea770ce","title":"How to use the Bold Reports with ASP.NET Core 3.0","date":"May 24, 2022","path":"/supported-frameworks/how-to-use-the-bold-reports-embedded-reporting-tools-with-asp.net-core-3.x"}},{"node":{"id":"9f547bbf2ceeb44e4f6f05a3cce00a6c","title":"How to use the Bold Reports with ASP.NET Core 3.1 version","date":"May 24, 2022","path":"/supported-frameworks/how-to-use-the-bold-reports-embedded-reporting-tools-with-asp.net-core-3.1"}},{"node":{"id":"f9f9ac1bc6e33547cd23f00c40bca3c1","title":"How to use the Report Viewer with camel case serializer?","date":"May 25, 2022","path":"/report-service/how-to-use-the-report-viewer-with-camel-case-serialize-settings-application"}},{"node":{"id":"8deaaa788de907dd0cb7a99498aa72c3","title":"Is it possible create WPF Bold report viewer in .Net Core","date":"May 24, 2022","path":"/supported-frameworks/is-it-possible-to-create-wpf-net-core-application-with-report-viewer"}},{"node":{"id":"4f101992ce8b1f62fb6c2894ee10c16c","title":"List of SSRS server versions are supported in Bold Reports","date":"May 24, 2022","path":"/working-with-ssrs/ssrs-supported-versions-in-bold-reports"}},{"node":{"id":"1e0c3ed47628b7e90fc51ea2acf8f0ef","title":"Load the million records report -1 | Bold Reports -1","date":"May 25, 2022","path":"/performance/is-it-possible-to-load-the-million-records-report-with-report-viewer-and-report-writer-1"}},{"node":{"id":"55fbdf2bd2e6aa5b8776a5dd3c93e0f1","title":"Load the million records report | Bold Reports","date":"May 25, 2022","path":"/performance/is-it-possible-to-load-the-million-records-report-with-report-viewer-and-report-writer"}},{"node":{"id":"27b68eca7d136e1047d24aa5900a50e0","title":"Manage reports within SQL server using Report Designer","date":"May 25, 2022","path":"/datasource-and-dataset/manage-reports-with-database"}}]}},"context":{}}